1 10 20
100 200 125
201 210 89
900 1000 174
999998 999999 259
1 1 1
1 2 2
2 4 8
1 400 144
7 10 20
7 7 17
5000 5001 65
6000 6000 50
100 1 119
1 100 119
7 88 116
88 3 116
12934 59234 340
662431 65845 509
888 895 148
85349 89364 333
9 3 20
1 1 1
6 6 9
6 6 9
6 6 9
6 6 9
6 7 17
100 190 125
190 100 125
100 190 125
190 100 125
1000 6000 238
100 1080 179
99 95 119
99 98 26
99 99 26
6 2 9
6 7 17
98 251 128
869 46 171
34 46 110
134 234 128
15 9846 262
35 59 113
54 35 113
25 64 113
68 69 15
54 67 113
95 21 116
95 59 116
64 20 113
20 21 8
21 22 16
22 23 16
23 24 16
24 25 24
25 26 24
26 27 112
27 28 112
28 29 19
29 30 19
20 30 112
10 30 112
1 30 112
67 68 28
58 59 33
112 1341 182
158 594 144
159 159 55
77 77 23
777 778 122
199 200 120
200 199 120
199 199 120
200 200 27
200 201 27
199 201 120
201 201 19
888888 888889 119
423 432 116
777122 777122 163
777777 777778 155
999999 999999 259
1000 1012 143
6 66 113
5 55 113
44 434 144
423 234 144
1954 1965 175
493 492 49
156 676 145
1941 1491 180
9152 5192 262
99 991 179
493 439 142
141 141 16
195 694 145
77 78 36
77 77 23
100 101 26
432 436 116
5310 5604 236
400 500 142
500 600 137
600 700 145
700 800 171
