1 10 20
100 200 125
201 210 89
900 1000 174
534780 576608 452
339075 411754 449
620870 244455 470
367082 283114 441
178337 37933 383
256984 495100 449
131445 240277 443
726652 607714 509
573596 452771 470
618780 214939 470
661757 83612 509
659518 538246 509
807248 5342 509
660655 122526 509
460333 573997 470
472951 524555 470
68718 230789 443
557616 546683 421
96910 484283 449
586762 322777 470
473128 272676 449
674797 45011 509
714640 755152 424
491279 822333 509
663738 522034 509
508359 249168 449
291029 509979 449
74410 533135 470
55621 770141 509
578818 627720 509
59973 735718 509
758575 393586 509
453486 483976 444
754988 258088 509
752405 820887 468
537347 963436 525
974920 527297 525
639489 49561 509
505675 338527 449
910835 453896 525
907799 771458 525
806001 431688 509
173427 438782 449
750706 947767 525
950034 87988 525
662996 680477 442
342305 258762 407
508787 969479 525
727156 789133 468
940304 218718 525
921832 182886 525
694990 286392 509
543102 636238 509
856003 517769 525
919040 39383 525
187786 204400 360
811214 985227 525
32248 42946 324
301447 371585 441
123510 866157 525
223710 284603 443
164692 172419 352
273300 80891 443
498989 324401 449
968318 955936 414
524368 516697 439
354763 14496 443
193585 988772 525
719500 993675 525
112068 995567 525
970824 289843 525
152053 623970 470
840530 21269 525
351026 675484 509
437502 782338 509
695027 398062 509
278383 67925 443
101654 439925 449
490804 874587 525
478511 93190 449
781297 925156 525
549943 239642 470
122388 432437 449
974181 5865 525
122678 67230 354
678114 124454 509
653323 27862 509
472574 141217 449
222455 370118 443
539791 117563 470
630598 253602 509
283044 537940 470
680612 223796 509
238137 792136 509
174023 13231 383
374085 772390 509
736277 762458 424
598785 278043 470
980850 246259 525
520101 687400 509
81767 100789 341
664635 572115 509
995086 682751 525
1299 889331 525
829298 439713 509
979268 81706 525
793560 139106 509
757282 653608 504
618313 207728 470
475035 375810 449
669523 121268 509
788114 918317 525
576437 327838 470
646922 859656 525
367029 83928 443
192895 864416 525
47744 747508 509
567629 246951 470
917868 408490 525
281325 189678 443
603297 277286 470
275554 728403 509
218115 480876 449
909841 594485 525
523255 115076 470
803018 549229 509
680541 925636 525
363106 171981 443
263363 950308 525
264001 57959 443
