710719 343922 509
90191 944645 525
394982 315944 441
172654 344193 443
964194 652966 525
583165 201031 470
79409 355704 443
283561 128511 443
827472 584789 509
296672 492634 449
390775 61349 443
952501 703824 525
507144 266212 449
67612 925579 525
805124 843841 525
512137 317864 470
102245 978532 525
714070 360291 509
149587 269538 443
786022 860017 525
802681 389084 509
581888 136596 470
613212 278609 470
647282 917 509
389969 752160 509
819404 617201 509
669351 811288 504
44862 637541 509
1314 884119 525
276202 143085 443
115006 428240 449
863561 64834 525
535207 278810 470
391448 578698 470
689877 617 509
545632 561344 452
540582 159556 470
293120 653082 509
808573 739180 468
224221 404677 443
584604 198211 470
365966 37031 443
506757 909916 525
998685 737517 525
940785 903110 507
818619 371553 509
803262 219129 509
239351 888759 525
556721 688013 509
775952 802203 468
86923 205471 383
209821 769511 509
27173 159420 383
794862 928327 525
912644 909929 476
256237 307258 407
947614 38112 525
299266 857999 525
192074 696685 509
767379 358420 509
200299 901457 525
677240 288979 509
938448 532726 525
810448 22240 509
520228 579275 452
981426 376772 525
905281 172267 525
55478 145328 375
422316 535103 470
568253 518367 452
704069 121982 509
299673 198142 443
505676 816071 509
136675 603762 470
111033 708470 509
769995 615892 509
235718 630498 509
593247 33928 470
865289 1513 525
360345 889693 525
222455 439116 449
370257 710296 509
541692 231952 470
663102 497468 509
48345 422151 449
886984 951150 507
234118 539016 470
712607 344705 509
882523 911295 476
794611 63967 509
733866 439547 509
839868 311643 525
173153 82176 383
47442 272273 443
79356 218374 386
601383 377975 470
270991 288067 389
776464 459418 509
177170 758467 509
256399 764896 509
52361 99682 351
520371 8215 470
809274 495852 509
337269 209622 443
417100 360289 449
330770 63513 443
944624 835790 525
287648 523649 470
485768 146517 449
698352 395130 509
241872 151591 443
360416 234022 441
716077 350538 509
499001 300728 449
254857 930260 525
281253 312018 389
897046 954115 507
805581 557510 509
186887 155884 383
662085 99378 509
794650 269975 509
616704 636711 509
807892 12271 509
849031 537008 525
199017 957210 525
799570 9485 509
671307 941942 525
922810 277654 525
653059 308085 509
761476 227757 509
371685 730752 509
56923 906662 525
82940 651052 509
4025 833910 509
224465 277367 443
305357 53094 443
51148 650165 509
904133 301808 525
56415 532504 470
304057 663343 509
157675 758737 509
517209 614609 452
920599 980593 507
192407 674765 509
913727 253227 525
184965 541973 470
467684 811211 509
745858 113913 509
613647 649940 509
167268 812430 509
469214 827011 509
280734 172499 443
303360 996401 525
293141 968293 525
731996 362289 509
29519 371970 443
482926 758823 509
345637 828525 509
320337 425210 449
591047 394318 470
835938 612646 509
244305 261918 363
794924 857335 525
779369 864786 525
778537 845641 525
134722 292430 443
970988 403095 525
248625 621639 470
314821 366863 441
841325 447253 525
995958 511419 525
53610 811139 509
510699 381522 449
913384 970512 507
673473 37366 509
416578 358134 449
194910 833029 509
114026 478691 449
651542 998410 525
897030 321129 525
199701 999083 525
548399 955156 525
746284 179948 509
54456 812634 509
114574 672390 509
917657 801147 525
843218 481118 525
422667 456747 418
116547 85379 354
981913 568423 525
935115 451998 525
254096 996404 525
230381 433271 449
324849 243939 407
554564 670410 509
177963 136953 383
48759 738483 509
906589 48385 525
333629 774851 509
222346 37390 386