71634 965906 525
524288 8192 470
507500 508500 364
1 6 9
1024 16 179
429000 430000 281
7063 7142 195
524288 8 470
191500 192500 329
627 844 171
256 32768 308
101500 102500 310
10 9 20
32768 131072 354
921000 922000 339
83659 57264 351
32768 1048576 525
636500 637500 354
446785 418495 418
524288 4096 470
206000 207000 373
1 9 20
128 131072 354
9500 10500 255
320496 485984 449
16 262144 443
687500 688500 380
3 4 8
32768 1048576 525
245000 246000 319
57 37 113
32 512 144
492500 493500 426
9 2 20
524288 2048 470
836500 837500 344
619 633 132
64 16 113
719000 720000 349
9 10 20
32 16 112
130500 131500 331
75080 18366 340
8 262144 443
905000 906000 295
6 69 113
32768 16 308
924000 925000 370
72 3 113
2048 16384 276
17000 18000 279
38 72 113
65536 16 340
605000 606000 341
2 10 20
1 65536 340
279000 280000 314
45 9 112
524288 32768 470
768500 769500 393
7 8 17
65536 65536 17
922000 923000 445
2 10 20
4 131072 354
568500 569500 359
160 768 171
524288 1048576 525
766500 767500 318
91100 15010 351
64 2 113
661000 662000 323
7 10 20
4096 16384 276
746500 747500 349
709221 469912 509
32768 524288 470
438500 439500 400
32982 92945 351
16 32 112
638500 639500 341
2 51 112
2 4 8
157000 158000 339
44 94 116
8 131072 354
698000 699000 367
83696 53055 351
524288 128 470
56500 57500 304
24305 60990 340
1048576 8 525
824000 825000 326
1 2 2
1024 16384 276
283500 284500 327
86891 404025 443
1 1024 179
38500 39500 275
590456 458072 470
1024 2 179
328500 329500 353
216 68 125
128 16 119
593500 594500 328
8020 1442 262
131072 8192 354
100500 101500 297
36983 22100 324
64 1 113
711000 712000 380
5896 6680 262
4096 2 238
397000 398000 330
10 5 20
16 524288 470
524500 525500 364
95631 17284 351
262144 32768 443
307000 308000 309
277201 781924 509
1048576 128 525
955000 956000 339
193 731 171
2048 1048576 525
480500 481500 369
3 2 8
1048576 2048 525
915500 916500 339
82 85 111
262144 2 443
899000 900000 295
71 95 116
2 1048576 525
9000 10000 260
984 486 179
4 64 113
751000 752000 331
29734 88851 351
4096 64 238
61000 62000 317
1764 5031 238
16384 64 276
457500 458500 338
182855 686632 509
65536 2048 340
754000 755000 318
765771 85338 509
65536 32768 340
733500 734500 349
95251 28442 351
32768 512 308
939500 940500 383
4 32 112
512 512 10
674000 675000 367
23306 74391 340
64 32 113
24000 25000 264
290 93 128
8 16384 276
896500 897500 370
5 10 20
256 65536 340
459000 460000 307
671 173 145
32 262144 443
140500 141500 313
2 7 17
256 8 128
989500 990500 352
202 238 128
1 8192 262
667000 668000 367
14 48 112
16384 1024 276
745500 746500 349
55 81 116
524288 1 470
326000 327000 247
2204 8954 262
8192 128 262
126000 127000 331
42 67 113
524288 4096 470
81500 82500 307
5870 9634 262
8 4 17
49000 50000 296
430 550 142
131072 128 354
759500 760500 380
41234 91593 351
8192 2 262
869500 870500 357
3 4 8
16 32 112
845500 846500 313
64 100 119
1024 131072 354
85000 86000 302
7160 4503 262
65536 32768 340
354000 355000 348
2 1 2
4 8 17
714000 715000 305
4 9 20
262144 262144 19
160500 161500 290
21058 75355 340
64 8 113
550000 551000 346
65493 43485 340
262144 524288 470
740500 741500 362
3 8 17
262144 512 443
458500 459500 294
8 5 17
8 262144 443
281500 282500 327
29972 6121 308
128 2 119
868500 869500 388
797873 555400 509
524288 32 470
811000 812000 287
42962 68974 340
16 1 20
305000 306000 265
5004 1028 238
16 65536 340
375500 376500 330
298 359 144
16384 8 276
999000 1000000 396
2 4 8
2 512 144
242000 243000 319
122228 947176 525
524288 32768 470
916500 917500 383
10 67 113
4 524288 470
133500 134500 313
23580 33439 308
8192 8 262
632000 633000 385
59173 37323 340
32 131072 354
441000 442000 294
44329 33333 324
32768 8 308
376000 377000 423
592 357 142
4096 1024 238
64500 65500 268
6581 8541 257
1048576 32768 525
951000 952000 383
615743 226992 470
4096 64 238
248500 249500 350
9 3 20
8192 16384 276
863500 864500 344
95821 29083 351
16384 8192 276
188500 189500 316
5 71 113
262144 1048576 525
944000 945000 383
227 195 120
1048576 2048 525
521500 522500 333
6478 7160 257
64 128 119
949000 950000 352
3968 73693 340
131072 131072 18
357000 358000 304
454 495 142
4096 1048576 525
352000 353000 335
956330 146752 525
64 8 113
942500 943500 339
632 5171 238
524288 8192 470
831500 832500 357
374 963 179
65536 65536 17
362500 363500 273
15 604 144
256 512 144
79000 80000 307
7 2 17
1048576 2048 525
455000 456000 338
4568 5653 236
8 8192 262
639500 640500 354
99 30 119
1024 131072 354
266500 267500 345
89816 81123 333
2048 1 182
926500 927500 476
605569 77747 470
512 65536 340
752500 753500 424
60 79 116
262144 2048 443
272000 273000 314
66768 21461 340
2 1024 179
571000 572000 359
166205 546728 470
8 4 17
987500 988500 352
68101 78474 351
1024 4096 238
807500 808500 331
99342 26813 351
2 2 2
524500 525500 364
59 212 125
131072 512 354
829000 830000 375
9 9 20
256 8 128
438500 439500 400
7277 6070 262
262144 524288 470
807500 808500 331
6 7 17
65536 2048 340
86000 87000 302
905349 165858 525
8192 128 262
102500 103500 310
488769 881906 525
1024 4 179
664000 665000 367
6 5 9
4 128 119
862000 863000 326
195961 490739 449
128 512 144
909500 910500 476
938 405 179
4096 2 238
475000 476000 320
775 8221 262
8192 1 262
284500 285500 376
146007 524532 470
1024 4 179
523500 524500 302
8057 9711 260
16 65536 340
247500 248500 319
3 9 20
262144 8192 443
617500 618500 372
10 10 7
131072 256 354
325000 326000 340
81 94 111
524288 65536 470
988000 989000 321
520 216 144
2048 32 182
694500 695500 367
6710 8826 257
262144 256 443
831000 832000 419
7 4 17
1024 262144 443
928000 929000 383
73 25 116
4 524288 470
524500 525500 364
535164 459191 470
16 4096 238
376500 377500 423
609006 846579 525
512 1024 179
887000 888000 401
4341 389 238
1 4096 238
771500 772500 362
3542 2765 217
256 8 128
933000 934000 370
8 4 17
2048 262144 443
787000 788000 362
808786 156317 509
1 1 1
528500 529500 377
364260 159747 443
32768 1 308
612000 613000 310
3 3 8
1 262144 443
126500 127500 331
40810 236301 443
16384 2 276
787500 788500 406
89162 15159 351
512 2048 182
824000 825000 326
8 1 17
2048 512 182
512000 513000 333
27 61 113
8 524288 470
216000 217000 386
4676 1581 238
32 65536 340
785500 786500 375
592191 178125 470
8 8192 262
492500 493500 426
306572 966812 525
2048 8192 262
989000 990000 352
585089 613930 403
8192 64 262
515500 516500 302
93 25 116
256 32768 308
824500 825500 313
1246 3693 217
524288 16 470
46000 47000 283
1431 5588 238
524288 128 470
14500 15500 271
40999 59434 340
2 8192 262
974500 975500 334
9844 7482 260
128 524288 470
448000 449000 369
394 197 144
32768 16384 308
926000 927000 370
879 923 148
2 1048576 525
242000 243000 319
146 23 122
131072 2 354
341500 342500 335
14 39 112
256 131072 354
229500 230500 306
5 8 17
2048 32 182
910000 911000 476
5 4 6
8 1048576 525
539500 540500 346
7 7 17
512 524288 470
387000 388000 299
59265 18409 340
32768 256 308
65000 66000 268
28 85 116
512 2 144
391000 392000 330
3885 4764 215
256 64 128
8500 9500 260
7587 8240 252
8 65536 340
237500 238500 319
67 2 113
8 262144 443
947000 948000 383
364 428 134
16384 16384 15
926500 927500 476
11 73 116
262144 512 443
938000 939000 445
19 63 113
64 2 113
80500 81500 320
246 838 171
2 524288 470
777000 778000 393
1075 1697 182
524288 8 470
231000 232000 350
6562 8885 257
8192 262144 443
61500 62500 317
1452 2786 209
16384 1 276
219500 220500 355
1139 7821 262
1048576 131072 525
581500 582500 328
1584 3969 238
524288 262144 470
504000 505000 364
353786 997060 525
32 16384 276
525000 526000 408
1919 3113 217
256 32 128
792500 793500 437
388 176 144
1 2 2
62500 63500 330
3130 3509 199
4 262144 443
260500 261500 332
539228 94541 470
131072 64 354
871500 872500 432
631 912 179
16384 16384 15
939000 940000 507
2602 24209 282
4096 1 238
582500 583500 328
89307 86317 333
4 1048576 525
64500 65500 268
75 478 144
256 2048 182
1000 2000 182
1 4 8
1048576 16384 525
302500 303500 340
778 967 179
2048 32 182
448000 449000 369
611795 446869 470
1024 128 179
760000 761000 380
6 4 9
1024 64 179
79000 80000 307
75 2 116
16 64 113
204000 205000 311
4469 2028 238
128 128 8
632000 633000 385
89 990 179
2048 16384 276
313000 314000 340
320 131 131
1024 1024 11
938000 939000 445
8366 4839 262
1024 512 179
575500 576500 346
882998 243420 525
256 65536 340
889000 890000 370
78 88 111
8 16384 276
777500 778500 437
27 21 112
8192 32768 308
244000 245000 275
31772 66540 340
1048576 262144 525
256000 257000 332
5 5 6
4 131072 354
70500 71500 325
20131 94276 351
2048 256 182
746000 747000 287
26 766 171
512 32768 308
514500 515500 395
44 216 125
2 65536 340
27000 28000 259
53 11 112
65536 2048 340
251500 252500 319
535 899 179
64 128 119
398500 399500 330
382728 170146 443
1048576 262144 525
904000 905000 383
10 8 20
2 512 144
125000 126000 318
3272 7350 262
128 2048 182
178500 179500 303
90619 31777 351
1024 256 179
341000 342000 335
25109 296711 443
128 16 119
910500 911500 339
97420 45337 351
4 262144 443
394500 395500 405
3854 5559 215
65536 1 340
781000 782000 362
4 52 112
2 256 128
232000 233000 337
487 620 142
8192 262144 443
1500 2500 209
84950 57015 351
131072 1048576 525
499000 500000 395
7 2 17
1024 524288 470
610500 611500 354
528405 857230 525
64 256 128
354500 355500 379
38 9 112
8 64 113
696500 697500 336
836590 347262 509
1 262144 443
24500 25500 264
70421 29864 340
1048576 32 525
331500 332500 353
1 19 21
1 1024 179
324500 325500 384
5 7 17
2 524288 470
709000 710000 336
725107 186051 509
64 128 119
13000 14000 276
56 13 113
32 64 113
199000 200000 329
7624 6890 257
512 1 144
637500 638500 354
438 55 144
1 524288 470
781000 782000 362
7 5 17
128 32 119
234500 235500 337
301626 637163 509
1 32768 308
530000 531000 346
7700 5033 262
16384 131072 354
361000 362000 348
901923 527238 525
65536 128 340
697500 698500 367
1308 6453 262
65536 1024 340
185000 186000 329
2 3 8
512 1048576 525
751500 752500 318
77884 53299 351
512 4096 238
567500 568500 346
149 186 125
32768 2048 308
602000 603000 297
28806 150980 375
1 16 20
913500 914500 357
1900 4911 238
16384 131072 354
167000 168000 321
756 389 171
8 4096 238
269000 270000 345
232 464 144
2 32768 308
990000 991000 321
72 96 116
8192 65536 340
491000 492000 320
1 10 20
2 32768 308
150000 151000 370
10 8 20
524288 65536 470
71500 72500 263
87861 7558 351
8 256 128
681500 682500 336
675 6663 262
512 1024 179
931500 932500 308
9 6 20
128 2048 182
521000 522000 364
854708 654259 525
8 4096 238
612500 613500 310
7823 2118 262
262144 1024 443
162500 163500 339
4 9 20
524288 512 470
865500 866500 388
3439 3710 207
524288 8 470
868500 869500 388
9 71 113
256 32768 308
234000 235000 381
55 918 179
8 524288 470
672500 673500 336
33542 59342 340
64 1024 179
134500 135500 344
74359 22906 340
8 2 17
176000 177000 334
949201 225079 525
65536 2 340
107000 108000 292
9865 6269 260
4 131072 354
402500 403500 268
462910 628833 509
2 4 8
296500 297500 327
2 8 17
512 8 144
381500 382500 374
963 867 179
32768 32768 16
486000 487000 382
4 87 116
1024 524288 470
505500 506500 364
6057 19044 279
524288 512 470
567500 568500 346
2 9 20
1024 64 179
88500 89500 315
78654 33502 351
32768 1024 308
323500 324500 322
23 8 21
1024 262144 443
199500 200500 342
971622 895920 507
16384 128 276
540500 541500 408
66 24 113
2 16 20
530000 531000 346
168 519 144
131072 1024 354
20500 21500 256
74 13 116
2 1024 179
557000 558000 315
6315 9119 257
512 256 144
522000 523000 333
6 10 20
4 2 8
568000 569000 359
16438 87125 351
4096 8 238
981500 982500 321
53181 59767 322
1 64 113
719000 720000 349
711 342 171
1024 2048 182
942500 943500 339
35688 269391 443
64 256 128
414000 415000 374
117056 982439 525
4 4 3
395500 396500 330
25 111 119
262144 524288 470
988500 989500 321
212 448 144
1048576 2048 525
839000 840000 388
20 332 144
16 256 128
732500 733500 318
742 994 179
524288 64 470
892500 893500 326
10 10 7
16384 2 276
29500 30500 272
3973 5134 215
1048576 16 525
269000 270000 345
2 8 17
16 1024 179
568500 569500 359
890 759 179
1048576 262144 525
965000 966000 321
935791 876770 476
1024 4096 238
916000 917000 339
45 69 113
8192 16384 276
903000 904000 295
915876 583323 525
32 4096 238
781500 782500 362
3 3 8
524288 4 470
758000 759000 362
48 1 112
1048576 64 525
358000 359000 379
375901 456994 449
8 64 113
334500 335500 322
33 25 112
256 1048576 525
494500 495500 351
285631 142871 443
32768 512 308
219000 220000 355
83702 55264 351
32768 1 308
748000 749000 318
82849 13318 351
4096 2048 238
598000 599000 341
168392 888545 525
262144 16384 443
696000 697000 336
1 2 2
4 8192 262
819000 820000 357
8371 23702 282
8192 4096 262
984000 985000 352
7 5 17
128 8192 262
670000 671000 323
5 1 8
4 512 144
595000 596000 328
19065 46015 324
2 32 112
106500 107500 323
7166 6482 257
8192 16 262
107500 108500 279
1202 7709 262
1 8 17
434000 435000 356
48744 22894 324
262144 64 443
779500 780500 362
72827 39458 340
524288 128 470
285500 286500 296
3 74 116
16384 256 276
495000 496000 320
685054 519404 509
65536 2048 340
161500 162500 321
173370 374754 443
128 524288 470
621000 622000 372
5337 1907 238
65536 8192 340
646500 647500 323
68248 86122 351
32 2 112
542500 543500 346
123900 618434 470
1048576 32768 525
805000 806000 375
24960 19954 282
64 32 113
445000 446000 338
3841 4552 215
1024 32 179
757500 758500 362
270 626 144
8192 8192 14
832000 833000 388
45 57 113
524288 64 470
159000 160000 352
918 535 179
262144 1 443
665500 666500 398
1043 5333 238
16 128 119
719000 720000 349
341 724 171
2048 32 182
633000 634000 354
3 6 9
1 524288 470
689000 690000 336
484 31 144
16384 131072 354
261500 262500 301
65785 80904 351
4096 4096 13
279500 280500 345
23 85 116
524288 524288 20
194000 195000 342
869 423 171
16384 65536 340
161000 162000 290
3 9 20
1 1 1
597500 598500 372
53248 48963 340
131072 262144 443
63000 64000 330
53490 219741 386
64 16384 276
568500 569500 359
919 614 179
256 262144 443
415500 416500 387
9106 4293 262
128 32 119
741000 742000 318
15847 49617 324
32768 2048 308
197500 198500 329
5657 3367 238
64 64 7
583500 584500 434
1212 518955 470
128 131072 354
124500 125500 318
87 69 116
32768 4096 308
160000 161000 370
596 750 171
2 256 128
281500 282500 327
948528 933558 507
512 262144 443
726500 727500 349
85 100 119
512 128 144
146500 147500 357
46075 47676 314
256 512 144
281000 282000 358
37 90 116
4 262144 443
775000 776000 437
1 4 8
262144 2 443
204500 205500 355
7 2 17
65536 32 340
242500 243500 319
78 28 116
512 4096 238
652500 653500 354
389 610 142
128 524288 470
308500 309500 327
54 87 116
32768 8 308
817500 818500 344
743 998 179
8192 8 262
118500 119500 318
24879 2950 282
16 32768 308
152500 153500 308
